rtl/mips_cpu/ALU_Testing/ALU_tb.vcd
$date
	Sat Dec 19 01:18:19 2020
$end
$version
	Icarus Verilog
$end
$timescale
	100ps
$end
$scope module ALU_tb $end
$var wire 32 ! instr [31:0] $end
$var wire 32 " Out [31:0] $end
$var reg 5 # ALU_Control [4:0] $end
$var reg 1 $ Mult_sign $end
$var reg 32 % SrcA [31:0] $end
$var reg 32 & SrcB [31:0] $end
$var reg 1 ' clk $end
$var reg 6 ( funct [5:0] $end
$var reg 5 ) shamt [4:0] $end
$var reg 1 * stall $end
$var reg 1 + validIn_mul $end
$scope module dut $end
$var wire 5 , ALU_Control [4:0] $end
$var wire 32 - SrcA [31:0] $end
$var wire 32 . SrcB [31:0] $end
$var wire 1 ' clk $end
$var wire 32 / instr [31:0] $end
$var wire 1 0 stall $end
$var wire 1 1 validOut_mul $end
$var wire 1 2 validOut_div $end
$var wire 5 3 shamt [4:0] $end
$var wire 6 4 funct [5:0] $end
$var wire 32 5 Mult_Lo [31:0] $end
$var wire 32 6 Mult_Hi [31:0] $end
$var wire 32 7 Div_Lo [31:0] $end
$var wire 32 8 Div_Hi [31:0] $end
$var wire 32 9 ALUResult [31:0] $end
$var reg 5 : ALU_OPCODE [4:0] $end
$var reg 1 ; Div_sign $end
$var reg 32 < Hi [31:0] $end
$var reg 1 = Hi_en $end
$var reg 32 > Hi_next [31:0] $end
$var reg 32 ? Lo [31:0] $end
$var reg 1 @ Lo_en $end
$var reg 32 A Lo_next [31:0] $end
$var reg 1 B Mult_sign $end
$var reg 32 C Out [31:0] $end
$var reg 32 D SrcA_to_ALU [31:0] $end
$var reg 32 E SrcB_to_ALU [31:0] $end
$var reg 1 F validIn_div $end
$var reg 1 G validIn_mul $end
$scope module alu_ $end
$var wire 5 H ALUControl [4:0] $end
$var wire 32 I NegSrcB [31:0] $end
$var wire 32 J SrcA [31:0] $end
$var wire 32 K SrcB [31:0] $end
$var wire 32 L JConst [31:0] $end
$var reg 32 M ALUResult [31:0] $end
$var reg 32 N SLT_sub [31:0] $end
$upscope $end
$scope module div $end
$var wire 32 O SrcA [31:0] $end
$var wire 32 P SrcB [31:0] $end
$var wire 1 ' clk $end
$var wire 1 ; sign $end
$var wire 1 F validIn $end
$var wire 5 Q msbB [4:0] $end
$var wire 5 R msbA [4:0] $end
$var wire 1 S is_neg_B $end
$var wire 1 T is_neg_A $end
$var wire 32 U Inverted_Remainder_next [31:0] $end
$var wire 32 V Inverted_Quotient_next [31:0] $end
$var wire 32 W Inverted_B [31:0] $end
$var wire 32 X Inverted_A [31:0] $end
$var reg 32 Y Divisor [31:0] $end
$var reg 32 Z Divisor_next [31:0] $end
$var reg 32 [ Hi [31:0] $end
$var reg 32 \ InputMSB_A [31:0] $end
$var reg 32 ] InputMSB_B [31:0] $end
$var reg 32 ^ Lo [31:0] $end
$var reg 32 _ Quotient [31:0] $end
$var reg 32 ` Quotient_next [31:0] $end
$var reg 32 a Remainder [31:0] $end
$var reg 32 b Remainder_next [31:0] $end
$var reg 6 c count [5:0] $end
$var reg 6 d count_next [5:0] $end
$var reg 1 e running $end
$var reg 1 f running_next $end
$var reg 1 2 validOut $end
$scope module MSBA $end
$var wire 32 g In [31:0] $end
$var wire 1 h In9 $end
$var wire 1 i In8 $end
$var wire 1 j In7 $end
$var wire 1 k In6 $end
$var wire 1 l In5 $end
$var wire 1 m In4 $end
$var wire 1 n In31 $end
$var wire 1 o In30 $end
$var wire 1 p In3 $end
$var wire 1 q In29 $end
$var wire 1 r In28 $end
$var wire 1 s In27 $end
$var wire 1 t In26 $end
$var wire 1 u In25 $end
$var wire 1 v In24 $end
$var wire 1 w In23 $end
$var wire 1 x In22 $end
$var wire 1 y In21 $end
$var wire 1 z In20 $end
$var wire 1 { In2 $end
$var wire 1 | In19 $end
$var wire 1 } In18 $end
$var wire 1 ~ In17 $end
$var wire 1 !" In16 $end
$var wire 1 "" In15 $end
$var wire 1 #" In14 $end
$var wire 1 $" In13 $end
$var wire 1 %" In12 $end
$var wire 1 &" In11 $end
$var wire 1 '" In10 $end
$var wire 1 (" In1 $end
$var wire 1 )" In0 $end
$var reg 5 *" Out [4:0] $end
$upscope $end
$scope module MSBB $end
$var wire 32 +" In [31:0] $end
$var wire 1 ," In9 $end
$var wire 1 -" In8 $end
$var wire 1 ." In7 $end
$var wire 1 /" In6 $end
$var wire 1 0" In5 $end
$var wire 1 1" In4 $end
$var wire 1 2" In31 $end
$var wire 1 3" In30 $end
$var wire 1 4" In3 $end
$var wire 1 5" In29 $end
$var wire 1 6" In28 $end
$var wire 1 7" In27 $end
$var wire 1 8" In26 $end
$var wire 1 9" In25 $end
$var wire 1 :" In24 $end
$var wire 1 ;" In23 $end
$var wire 1 <" In22 $end
$var wire 1 =" In21 $end
$var wire 1 >" In20 $end
$var wire 1 ?" In2 $end
$var wire 1 @" In19 $end
$var wire 1 A" In18 $end
$var wire 1 B" In17 $end
$var wire 1 C" In16 $end
$var wire 1 D" In15 $end
$var wire 1 E" In14 $end
$var wire 1 F" In13 $end
$var wire 1 G" In12 $end
$var wire 1 H" In11 $end
$var wire 1 I" In10 $end
$var wire 1 J" In1 $end
$var wire 1 K" In0 $end
$var reg 5 L" Out [4:0] $end
$upscope $end
$scope module inver_B $end
$var wire 32 M" In [31:0] $end
$var reg 32 N" Out [31:0] $end
$upscope $end
$scope module invert_A $end
$var wire 32 O" In [31:0] $end
$var reg 32 P" Out [31:0] $end
$upscope $end
$scope module invert_quotient $end
$var wire 32 Q" In [31:0] $end
$var reg 32 R" Out [31:0] $end
$upscope $end
$scope module invert_remainder $end
$var wire 32 S" In [31:0] $end
$var reg 32 T" Out [31:0] $end
$upscope $end
$upscope $end
$scope module mult_ $end
$var wire 32 U" SrcA [31:0] $end
$var wire 32 V" SrcB [31:0] $end
$var wire 1 ' clk $end
$var wire 1 B sign $end
$var wire 1 G validIn $end
$var wire 8 W" mp_nibble [7:0] $end
$var wire 1 X" is_neg_B $end
$var wire 1 Y" is_neg_A $end
$var wire 64 Z" Inverted_sum_next [63:0] $end
$var wire 32 [" Inverted_B [31:0] $end
$var wire 32 \" Inverted_A [31:0] $end
$var reg 32 ]" Hi [31:0] $end
$var reg 32 ^" Lo [31:0] $end
$var reg 6 _" count [5:0] $end
$var reg 6 `" count_next [5:0] $end
$var reg 64 a" mc [63:0] $end
$var reg 64 b" mc_next [63:0] $end
$var reg 32 c" mp [31:0] $end
$var reg 32 d" mp_next [31:0] $end
$var reg 1 e" negative $end
$var reg 1 f" running $end
$var reg 1 g" running_next $end
$var reg 64 h" sum [63:0] $end
$var reg 64 i" sum_next [63:0] $end
$var reg 1 1 validOut $end
$scope module inver_B $end
$var wire 32 j" In [31:0] $end
$var reg 32 k" Out [31:0] $end
$upscope $end
$scope module invert_A $end
$var wire 32 l" In [31:0] $end
$var reg 32 m" Out [31:0] $end
$upscope $end
$scope module invert_sum $end
$var wire 64 n" In [63:0] $end
$var reg 64 o" Out [63:0] $end
$upscope $end
$upscope $end
$upscope $end
$upscope $end
$enddefinitions $end
#0
$dumpvars
bx o"
bx n"
bx m"
bx l"
bx k"
bx j"
bx i"
bx h"
xg"
xf"
1e"
bx d"
bx c"
bx b"
bx a"
bx `"
bx _"
bx ^"
bx ]"
bx \"
bx ["
bx Z"
xY"
xX"
bx W"
bx V"
bx U"
bx T"
bx S"
bx R"
bx Q"
bx P"
bx O"
bx N"
bx M"
bx L"
xK"
xJ"
xI"
xH"
xG"
xF"
xE"
xD"
xC"
xB"
xA"
x@"
x?"
x>"
x="
x<"
x;"
x:"
x9"
x8"
x7"
x6"
x5"
x4"
x3"
x2"
x1"
x0"
x/"
x."
x-"
x,"
bx +"
bx *"
x)"
x("
x'"
x&"
x%"
x$"
x#"
x""
x!"
x~
x}
x|
x{
xz
xy
xx
xw
xv
xu
xt
xs
xr
xq
xp
xo
xn
xm
xl
xk
xj
xi
xh
bx g
xf
xe
bx d
bx c
bx b
bx a
bx `
bx _
bx ^
bx ]
bx \
bx [
bx Z
bx Y
bx X
bx W
bx V
bx U
xT
xS
bx R
bx Q
bx P
bx O
bx N
bx M
b0xxxxxxxxxxxxxxxxxxxxxxxxxxx00 L
bx K
bx J
bx I
bx H
xG
xF
bx E
bx D
bx C
xB
bx A
x@
bx ?
bx >
x=
bx <
x;
bx :
bx 9
bx 8
bx 7
bx 6
bx 5
bx 4
bx 3
x2
x1
x0
bzxxxxxxxxxxx /
bx .
bx -
bx ,
x+
x*
bx )
bx (
0'
bx &
bx %
x$
bx #
bx "
bzxxxxxxxxxxx !
$end
#150
01
02
b0 L
b0 "
b0 C
00
1S
1X"
0T
0Y"
b0 9
b0 M
b0 \"
b0 m"
b1010001010100010101011101010011 ["
b1010001010100010101011101010011 k"
b0 Z"
b0 o"
0g"
b0 `"
b0 i"
b0 n"
b0 X
b0 P"
b1010001010100010101011101010011 W
b1010001010100010101011101010011 N"
0f
b0 D
b0 J
b10101110101011101010100010101101 I
b10101110101011101010100010101101 E
b10101110101011101010100010101101 K
0@
0=
0F
0G
b0 :
b0 H
b10101110101011101010100010101101 &
b10101110101011101010100010101101 .
b10101110101011101010100010101101 P
b10101110101011101010100010101101 M"
b10101110101011101010100010101101 V"
b10101110101011101010100010101101 j"
b0 %
b0 -
b0 O
b0 O"
b0 U"
b0 l"
b0 #
b0 ,
1'
#250
0'
#350
0e
0f"
b0 _"
b0 h"
1'
#450
0'
#550
b11111111111111111111111111100 L
b11101011101101100010101010111110 "
b11101011101101100010101010111110 C
0e"
1T
1Y"
b11101011101101100010101010111110 9
b11101011101101100010101010111110 M
b1 \"
b1 m"
b10100010010011101010101000010 ["
b10100010010011101010101000010 k"
b1 X
b1 P"
b10100010010011101010101000010 W
b10100010010011101010101000010 N"
b11111111111111111111111111111111 D
b11111111111111111111111111111111 J
b11101011101101100010101010111110 I
b11101011101101100010101010111110 E
b11101011101101100010101010111110 K
b11101011101101100010101010111110 &
b11101011101101100010101010111110 .
b11101011101101100010101010111110 P
b11101011101101100010101010111110 M"
b11101011101101100010101010111110 V"
b11101011101101100010101010111110 j"
b11111111111111111111111111111111 %
b11111111111111111111111111111111 -
b11111111111111111111111111111111 O
b11111111111111111111111111111111 O"
b11111111111111111111111111111111 U"
b11111111111111111111111111111111 l"
1'
#650
0'
#750
1'
#850
0'
#950
b10100010111010101101001101000 L
b10100001000101100000001010011010 "
b10100001000101100000001010011010 C
b10100001000101100000001010011010 9
b10100001000101100000001010011010 M
b1001010111010001010100101100110 \"
b1001010111010001010100101100110 m"
b1001010111010001010100101100110 X
b1001010111010001010100101100110 P"
b10110101000101110101011010011010 D
b10110101000101110101011010011010 J
b10110101000101110101011010011010 %
b10110101000101110101011010011010 -
b10110101000101110101011010011010 O
b10110101000101110101011010011010 O"
b10110101000101110101011010011010 U"
b10110101000101110101011010011010 l"
1'
#1050
0'
#1150
1'
#1250
0'
#1350
b0 L
b0 "
b0 C
0S
0X"
0T
0Y"
b0 9
b0 M
b0 \"
b0 m"
b0 ["
b0 k"
b0 X
b0 P"
b0 W
b0 N"
b0 D
b0 J
b0 I
b0 E
b0 K
b1 :
b1 H
b0 &
b0 .
b0 P
b0 M"
b0 V"
b0 j"
b0 %
b0 -
b0 O
b0 O"
b0 U"
b0 l"
b1 #
b1 ,
1'
#1450
0'
#1550
1'
#1650
0'
#1750
b11111111111111111111111111100 L
b11111111111111111111111111111111 "
b11111111111111111111111111111111 C
1S
1X"
1T
1Y"
b11111111111111111111111111111111 9
b11111111111111111111111111111111 M
b1 \"
b1 m"
b1 ["
b1 k"
b1 X
b1 P"
b1 W
b1 N"
b11111111111111111111111111111111 D
b11111111111111111111111111111111 J
b11111111111111111111111111111111 I
b11111111111111111111111111111111 E
b11111111111111111111111111111111 K
b11111111111111111111111111111111 &
b11111111111111111111111111111111 .
b11111111111111111111111111111111 P
b11111111111111111111111111111111 M"
b11111111111111111111111111111111 V"
b11111111111111111111111111111111 j"
b11111111111111111111111111111111 %
b11111111111111111111111111111111 -
b11111111111111111111111111111111 O
b11111111111111111111111111111111 O"
b11111111111111111111111111111111 U"
b11111111111111111111111111111111 l"
1'
#1850
0'
#1950
1'
#2050
0'
#2150
b11101110111101011111010110100 L
b11111111111111111011111111111101 "
b11111111111111111011111111111101 C
1e"
0S
0X"
b11111111111111111011111111111101 9
b11111111111111111011111111111101 M
b1010000100010000101000001010011 \"
b1010000100010000101000001010011 m"
b10001010001000001110101010001011 ["
b10001010001000001110101010001011 k"
b1010000100010000101000001010011 X
b1010000100010000101000001010011 P"
b10001010001000001110101010001011 W
b10001010001000001110101010001011 N"
b10101111011101111010111110101101 D
b10101111011101111010111110101101 J
b1110101110111110001010101110101 I
b1110101110111110001010101110101 E
b1110101110111110001010101110101 K
b1110101110111110001010101110101 &
b1110101110111110001010101110101 .
b1110101110111110001010101110101 P
b1110101110111110001010101110101 M"
b1110101110111110001010101110101 V"
b1110101110111110001010101110101 j"
b10101111011101111010111110101101 %
b10101111011101111010111110101101 -
b10101111011101111010111110101101 O
b10101111011101111010111110101101 O"
b10101111011101111010111110101101 U"
b10101111011101111010111110101101 l"
1'
#2250
0'
#2350
1'
#2450
0'
#2550
b11111111111111111111111111100 L
b0 "
b0 C
b0 9
b0 M
b1 \"
b1 m"
b11111111111111111111111111111111 ["
b11111111111111111111111111111111 k"
b1 X
b1 P"
b11111111111111111111111111111111 W
b11111111111111111111111111111111 N"
b11111111111111111111111111111111 D
b11111111111111111111111111111111 J
b1 I
b1 E
b1 K
b10 :
b10 H
b1 &
b1 .
b1 P
b1 M"
b1 V"
b1 j"
b11111111111111111111111111111111 %
b11111111111111111111111111111111 -
b11111111111111111111111111111111 O
b11111111111111111111111111111111 O"
b11111111111111111111111111111111 U"
b11111111111111111111111111111111 l"
b10 #
b10 ,
1'
#2650
0'
#2750
1'
#2850
0'
#2950
b1110101001011010010110110100 L
b10100001010101101101111101000010 "
b10100001010101101101111101000010 C
0e"
1S
1X"
b10100001010101101101111101000010 9
b10100001010101101101111101000010 M
b1010100010101101001011010010011 \"
b1010100010101101001011010010011 m"
b1010010100101000101000101011 ["
b1010010100101000101000101011 k"
b1010100010101101001011010010011 X
b1010100010101101001011010010011 P"
b1010010100101000101000101011 W
b1010010100101000101000101011 N"
b10101011101010010110100101101101 D
b10101011101010010110100101101101 J
b11110101101011010111010111010101 I
b11110101101011010111010111010101 E
b11110101101011010111010111010101 K
b11110101101011010111010111010101 &
b11110101101011010111010111010101 .
b11110101101011010111010111010101 P
b11110101101011010111010111010101 M"
b11110101101011010111010111010101 V"
b11110101101011010111010111010101 j"
b10101011101010010110100101101101 %
b10101011101010010110100101101101 -
b10101011101010010110100101101101 O
b10101011101010010110100101101101 O"
b10101011101010010110100101101101 U"
b10101011101010010110100101101101 l"
1'
#3050
0'
#3150
1'
#3250
0'
#3350
b11111111111111111111111111100 L
b11111111111111111111111111111110 "
b11111111111111111111111111111110 C
b11111111111111111111111111111110 9
b11111111111111111111111111111110 M
b1 \"
b1 m"
b1 ["
b1 k"
b1 X
b1 P"
b1 W
b1 N"
b11111111111111111111111111111111 D
b11111111111111111111111111111111 J
b11111111111111111111111111111111 I
b11111111111111111111111111111111 E
b11111111111111111111111111111111 K
b11111111111111111111111111111111 &
b11111111111111111111111111111111 .
b11111111111111111111111111111111 P
b11111111111111111111111111111111 M"
b11111111111111111111111111111111 V"
b11111111111111111111111111111111 j"
b11111111111111111111111111111111 %
b11111111111111111111111111111111 -
b11111111111111111111111111111111 O
b11111111111111111111111111111111 O"
b11111111111111111111111111111111 U"
b11111111111111111111111111111111 l"
1'
#3450
0'
#3550
1'
#3650
0'
#3750
b11111111111111111111111111111111 "
b11111111111111111111111111111111 C
1e"
0S
0X"
b11111111111111111111111111111111 9
b11111111111111111111111111111111 M
b0 ["
b0 k"
b0 W
b0 N"
b0 I
b0 E
b0 K
b11 :
b11 H
b0 &
b0 .
b0 P
b0 M"
b0 V"
b0 j"
b11 #
b11 ,
1'
#3850
0'
#3950
1'
#4050
0'
#4150
b0 L
b0 "
b0 C
0e"
0T
0Y"
b0 9
b0 M
b0 \"
b0 m"
b0 X
b0 P"
b0 D
b0 J
b0 %
b0 -
b0 O
b0 O"
b0 U"
b0 l"
1'
#4250
0'
#4350
1'
#4450
0'
#4550
b10001001010101001010010101000 L
b1110101101111101000000101000 "
b1110101101111101000000101000 C
1S
1X"
1T
1Y"
b1110101101111101000000101000 9
b1110101101111101000000101000 M
b1001011101101010101101011010110 \"
b1001011101101010101101011010110 m"
b1000101000000101000101011111110 ["
b1000101000000101000101011111110 k"
b1001011101101010101101011010110 X
b1001011101101010101101011010110 P"
b1000101000000101000101011111110 W
b1000101000000101000101011111110 N"
b10110100010010101010010100101010 D
b10110100010010101010010100101010 J
b10111010111111010111010100000010 I
b10111010111111010111010100000010 E
b10111010111111010111010100000010 K
b10111010111111010111010100000010 &
b10111010111111010111010100000010 .
b10111010111111010111010100000010 P
b10111010111111010111010100000010 M"
b10111010111111010111010100000010 V"
b10111010111111010111010100000010 j"
b10110100010010101010010100101010 %
b10110100010010101010010100101010 -
b10110100010010101010010100101010 O
b10110100010010101010010100101010 O"
b10110100010010101010010100101010 U"
b10110100010010101010010100101010 l"
1'
#4650
0'
#4750
1'
#4850
0'
#4950
b100 L
00
b11111111111111111111111111111110 "
b11111111111111111111111111111110 C
b1 3
b11111111111111111111111111111110 9
b11111111111111111111111111111110 M
b1 ["
b1 k"
b1 W
b1 N"
b11111111111111111111111111111111 I
b11111111111111111111111111111111 E
b11111111111111111111111111111111 K
b1 D
b1 J
b100 :
b100 H
b0 4
b11111111111111111111111111111111 &
b11111111111111111111111111111111 .
b11111111111111111111111111111111 P
b11111111111111111111111111111111 M"
b11111111111111111111111111111111 V"
b11111111111111111111111111111111 j"
b1 )
b1111 #
b1111 ,
bz00001000000 !
bz00001000000 /
b0 (
1'
#5050
0'
#5150
1'
#5250
0'
#5350
b0 L
b1100110101111001110011010111111 "
b1100110101111001110011010111111 C
1e"
0S
0X"
b1100110101111001110011010111111 9
b1100110101111001110011010111111 M
b10011001010000110001100101000001 ["
b10011001010000110001100101000001 k"
b10011001010000110001100101000001 W
b10011001010000110001100101000001 N"
b1100110101111001110011010111111 I
b1100110101111001110011010111111 E
b1100110101111001110011010111111 K
b0 D
b0 J
b0 3
b1100110101111001110011010111111 &
b1100110101111001110011010111111 .
b1100110101111001110011010111111 P
b1100110101111001110011010111111 M"
b1100110101111001110011010111111 V"
b1100110101111001110011010111111 j"
bz00000000000 !
bz00000000000 /
b0 )
1'
#5450
0'
#5550
1'
#5650
0'
#5750
b1000000 L
b101000000001110000000000000000 "
b101000000001110000000000000000 C
b101000000001110000000000000000 9
b101000000001110000000000000000 M
b11011110100110001101011111111001 ["
b11011110100110001101011111111001 k"
b11011110100110001101011111111001 W
b11011110100110001101011111111001 N"
b100001011001110010100000000111 I
b100001011001110010100000000111 E
b100001011001110010100000000111 K
b10000 D
b10000 J
b10000 3
b100001011001110010100000000111 &
b100001011001110010100000000111 .
b100001011001110010100000000111 P
b100001011001110010100000000111 M"
b100001011001110010100000000111 V"
b100001011001110010100000000111 j"
bz10000000000 !
bz10000000000 /
b10000 )
1'
#5850
0'
#5950
1'
#6050
0'
#6150
b100 L
b1 D
b1 J
b1111111111111111111111111111111 "
b1111111111111111111111111111111 C
0e"
1S
1X"
b1 3
b1111111111111111111111111111111 9
b1111111111111111111111111111111 M
b1 ["
b1 k"
b1 W
b1 N"
b11111111111111111111111111111111 I
b11111111111111111111111111111111 E
b11111111111111111111111111111111 K
b101 :
b101 H
b10 4
b11111111111111111111111111111111 &
b11111111111111111111111111111111 .
b11111111111111111111111111111111 P
b11111111111111111111111111111111 M"
b11111111111111111111111111111111 V"
b11111111111111111111111111111111 j"
b1 )
bz00001000010 !
bz00001000010 /
b10 (
1'
#6250
0'
#6350
1'
#6450
0'
#6550
b1111100 L
b1 "
b1 C
b1 9
b1 M
b1110111111111111100011111110111 ["
b1110111111111111100011111110111 k"
b1110111111111111100011111110111 W
b1110111111111111100011111110111 N"
b10001000000000000011100000001001 I
b10001000000000000011100000001001 E
b10001000000000000011100000001001 K
b11111 D
b11111 J
b11111 3
b10001000000000000011100000001001 &
b10001000000000000011100000001001 .
b10001000000000000011100000001001 P
b10001000000000000011100000001001 M"
b10001000000000000011100000001001 V"
b10001000000000000011100000001001 j"
bz11111000010 !
bz11111000010 /
b11111 )
1'
#6650
0'
#6750
1'
#6850
0'
#6950
b11000 L
b111001111000111010101111 "
b111001111000111010101111 C
1e"
0S
0X"
b111001111000111010101111 9
b111001111000111010101111 M
b11000110000111000101010000100000 ["
b11000110000111000101010000100000 k"
b11000110000111000101010000100000 W
b11000110000111000101010000100000 N"
b111001111000111010101111100000 I
b111001111000111010101111100000 E
b111001111000111010101111100000 K
b110 D
b110 J
b110 3
b111001111000111010101111100000 &
b111001111000111010101111100000 .
b111001111000111010101111100000 P
b111001111000111010101111100000 M"
b111001111000111010101111100000 V"
b111001111000111010101111100000 j"
bz00110000010 !
bz00110000010 /
b110 )
1'
#7050
0'
#7150
1'
#7250
0'
#7350
b11111111111111111111111111100 L
b10000000000000000000000000000000 "
b10000000000000000000000000000000 C
1S
1X"
0T
0Y"
b10000000000000000000000000000000 9
b10000000000000000000000000000000 M
b10000000000000000000000000000001 \"
b10000000000000000000000000000001 m"
b1 ["
b1 k"
b10000000000000000000000000000001 X
b10000000000000000000000000000001 P"
b1 W
b1 N"
b1111111111111111111111111111111 D
b1111111111111111111111111111111 J
b11111111111111111111111111111111 I
b11111111111111111111111111111111 E
b11111111111111111111111111111111 K
b110 :
b110 H
b100011 4
b11111111111111111111111111111111 &
b11111111111111111111111111111111 .
b11111111111111111111111111111111 P
b11111111111111111111111111111111 M"
b11111111111111111111111111111111 V"
b11111111111111111111111111111111 j"
b1111111111111111111111111111111 %
b1111111111111111111111111111111 -
b1111111111111111111111111111111 O
b1111111111111111111111111111111 O"
b1111111111111111111111111111111 U"
b1111111111111111111111111111111 l"
bz00110100011 !
bz00110100011 /
b100011 (
1'
#7450
0'
#7550
1'
#7650
0'
#7750
b100000000000001100 L
b111110010010100 "
b111110010010100 C
0e"
0S
0X"
b111110010010100 9
b111110010010100 M
b11111111111111110111111111111101 \"
b11111111111111110111111111111101 m"
b11111111111111111111110010010001 ["
b11111111111111111111110010010001 k"
b11111111111111110111111111111101 X
b11111111111111110111111111111101 P"
b11111111111111111111110010010001 W
b11111111111111111111110010010001 N"
b1000000000000011 D
b1000000000000011 J
b1101101111 I
b1101101111 E
b1101101111 K
b1101101111 &
b1101101111 .
b1101101111 P
b1101101111 M"
b1101101111 V"
b1101101111 j"
b1000000000000011 %
b1000000000000011 -
b1000000000000011 O
b1000000000000011 O"
b1000000000000011 U"
b1000000000000011 l"
1'
#7850
0'
#7950
1'
#8050
0'
#8150
b1000011000111000000000111100 L
b1101010000110001110000000001111 "
b1101010000110001110000000001111 C
b1101010000110001110000000001111 9
b1101010000110001110000000001111 M
b10010101111001110001111111110001 \"
b10010101111001110001111111110001 m"
b0 ["
b0 k"
b10010101111001110001111111110001 X
b10010101111001110001111111110001 P"
b0 W
b0 N"
b1101010000110001110000000001111 D
b1101010000110001110000000001111 J
b0 I
b0 E
b0 K
b0 &
b0 .
b0 P
b0 M"
b0 V"
b0 j"
b1101010000110001110000000001111 %
b1101010000110001110000000001111 -
b1101010000110001110000000001111 O
b1101010000110001110000000001111 O"
b1101010000110001110000000001111 U"
b1101010000110001110000000001111 l"
1'
#8250
0'
#8350
1'
#8450
0'
#8550
b11111111111111111111111111100 L
b0 "
b0 C
b0 9
b0 M
b1111111111111111111111111111100 N
b10000000000000000000000000000001 \"
b10000000000000000000000000000001 m"
b11111111111111111111111111111101 ["
b11111111111111111111111111111101 k"
b10000000000000000000000000000001 X
b10000000000000000000000000000001 P"
b11111111111111111111111111111101 W
b11111111111111111111111111111101 N"
b1111111111111111111111111111111 D
b1111111111111111111111111111111 J
b11 I
b11 E
b11 K
b111 :
b111 H
b11 &
b11 .
b11 P
b11 M"
b11 V"
b11 j"
b1111111111111111111111111111111 %
b1111111111111111111111111111111 -
b1111111111111111111111111111111 O
b1111111111111111111111111111111 O"
b1111111111111111111111111111111 U"
b1111111111111111111111111111111 l"
b111 #
b111 ,
1'
#8650
0'
#8750
1'
#8850
0'
#8950
b1011101110111000 L
b1 "
b1 C
b1 9
b1 M
b10100000101000101100010100110011 N
b11111111111111111101000100010010 \"
b11111111111111111101000100010010 m"
b10100000101000101001011001000101 ["
b10100000101000101001011001000101 k"
b11111111111111111101000100010010 X
b11111111111111111101000100010010 P"
b10100000101000101001011001000101 W
b10100000101000101001011001000101 N"
b10111011101110 D
b10111011101110 J
b1011111010111010110100110111011 I
b1011111010111010110100110111011 E
b1011111010111010110100110111011 K
b1011111010111010110100110111011 &
b1011111010111010110100110111011 .
b1011111010111010110100110111011 P
b1011111010111010110100110111011 M"
b1011111010111010110100110111011 V"
b1011111010111010110100110111011 j"
b10111011101110 %
b10111011101110 -
b10111011101110 O
b10111011101110 O"
b10111011101110 U"
b10111011101110 l"
1'
#9050
0'
#9150
1'
#9250
0'
#9350
b1100 L
b0 "
b0 C
b0 9
b0 M
b0 N
b11111111111111111111111111111101 \"
b11111111111111111111111111111101 m"
b11111111111111111111111111111101 ["
b11111111111111111111111111111101 k"
b11111111111111111111111111111101 X
b11111111111111111111111111111101 P"
b11111111111111111111111111111101 W
b11111111111111111111111111111101 N"
b11 D
b11 J
b11 I
b11 E
b11 K
b11 &
b11 .
b11 P
b11 M"
b11 V"
b11 j"
b11 %
b11 -
b11 O
b11 O"
b11 U"
b11 l"
1'
#9450
0'
#9550
1'
#9650
0'
#9750
b100 L
b11111111111111111111111111111111 "
b11111111111111111111111111111111 C
1e"
1S
1X"
b1 3
b11111111111111111111111111111111 9
b11111111111111111111111111111111 M
b1 ["
b1 k"
b1 W
b1 N"
b11111111111111111111111111111111 I
b11111111111111111111111111111111 E
b11111111111111111111111111111111 K
b1 D
b1 J
b1000 :
b1000 H
b11 4
b11111111111111111111111111111111 &
b11111111111111111111111111111111 .
b11111111111111111111111111111111 P
b11111111111111111111111111111111 M"
b11111111111111111111111111111111 V"
b11111111111111111111111111111111 j"
b1 )
b1111 #
b1111 ,
bz00001000011 !
bz00001000011 /
b11 (
1'
#9850
0'
#9950
1'
#10050
0'
#10150
b1111100 L
b1110111111111111100011111110111 ["
b1110111111111111100011111110111 k"
b1110111111111111100011111110111 W
b1110111111111111100011111110111 N"
b10001000000000000011100000001001 I
b10001000000000000011100000001001 E
b10001000000000000011100000001001 K
b11111 D
b11111 J
b11111 3
b10001000000000000011100000001001 &
b10001000000000000011100000001001 .
b10001000000000000011100000001001 P
b10001000000000000011100000001001 M"
b10001000000000000011100000001001 V"
b10001000000000000011100000001001 j"
bz11111000011 !
bz11111000011 /
b11111 )
1'
#10250
0'
#10350
1'
#10450
0'
#10550
b11000 L
b111001111000111010101111 "
b111001111000111010101111 C
0e"
0S
0X"
b111001111000111010101111 9
b111001111000111010101111 M
b11000110000111000101010000100000 ["
b11000110000111000101010000100000 k"
b11000110000111000101010000100000 W
b11000110000111000101010000100000 N"
b111001111000111010101111100000 I
b111001111000111010101111100000 E
b111001111000111010101111100000 K
b110 D
b110 J
b110 3
b111001111000111010101111100000 &
b111001111000111010101111100000 .
b111001111000111010101111100000 P
b111001111000111010101111100000 M"
b111001111000111010101111100000 V"
b111001111000111010101111100000 j"
bz00110000011 !
bz00110000011 /
b110 )
1'
#10650
0'
#10750
1'
#10850
0'
#10950
b10111111111111111111111111100 L
b0 "
b0 C
1e"
1T
1Y"
b0 9
b0 M
b10000000000000000000000001 \"
b10000000000000000000000001 m"
b11111111111111111111111111111101 ["
b11111111111111111111111111111101 k"
b10000000000000000000000001 X
b10000000000000000000000001 P"
b11111111111111111111111111111101 W
b11111111111111111111111111111101 N"
b11111101111111111111111111111111 D
b11111101111111111111111111111111 J
b11 I
b11 E
b11 K
b1001 :
b1001 H
b11 &
b11 .
b11 P
b11 M"
b11 V"
b11 j"
b11111101111111111111111111111111 %
b11111101111111111111111111111111 -
b11111101111111111111111111111111 O
b11111101111111111111111111111111 O"
b11111101111111111111111111111111 U"
b11111101111111111111111111111111 l"
b1001 #
b1001 ,
1'
#11050
0'
#11150
1'
#11250
0'
#11350
b100000100001011101110111000 L
b1 "
b1 C
1S
1X"
0T
0Y"
b1 9
b1 M
b11111110111110111101000100010010 \"
b11111110111110111101000100010010 m"
b100000101000101001011001000101 ["
b100000101000101001011001000101 k"
b11111110111110111101000100010010 X
b11111110111110111101000100010010 P"
b100000101000101001011001000101 W
b100000101000101001011001000101 N"
b1000001000010111011101110 D
b1000001000010111011101110 J
b11011111010111010110100110111011 I
b11011111010111010110100110111011 E
b11011111010111010110100110111011 K
b11011111010111010110100110111011 &
b11011111010111010110100110111011 .
b11011111010111010110100110111011 P
b11011111010111010110100110111011 M"
b11011111010111010110100110111011 V"
b11011111010111010110100110111011 j"
b1000001000010111011101110 %
b1000001000010111011101110 -
b1000001000010111011101110 O
b1000001000010111011101110 O"
b1000001000010111011101110 U"
b1000001000010111011101110 l"
1'
#11450
0'
#11550
1'
#11650
0'
